module gitlab.com/varex83/authenticator

go 1.17

require (
	github.com/alecthomas/kingpin v2.2.6+incompatible
	github.com/go-chi/chi v4.1.2+incompatible
	github.com/rubenv/sql-migrate v0.0.0-20211023115951-9f02b1e13857
	gitlab.com/distributed_lab/ape v1.6.1
	gitlab.com/distributed_lab/kit v1.8.6
	gitlab.com/distributed_lab/logan v3.8.0+incompatible
	golang.org/x/crypto v0.0.0-20210921155107-089bfa567519
)

require (
	github.com/gobuffalo/logger v1.0.4 // indirect
	github.com/gobuffalo/packd v1.0.0 // indirect
	github.com/karrick/godirwalk v1.16.1 // indirect
	github.com/markbates/errx v1.1.0 // indirect
	github.com/markbates/oncer v1.0.0 // indirect
	github.com/markbates/safe v1.0.1 // indirect
	github.com/rogpeppe/go-internal v1.8.0 // indirect
	github.com/subosito/gotenv v1.2.0 // indirect
	golang.org/x/term v0.0.0-20210927222741-03fcf44c2211 // indirect
	gopkg.in/ini.v1 v1.62.0 // indirect
)

require (
	github.com/Masterminds/squirrel v1.4.0
	github.com/alecthomas/template v0.0.0-20160405071501-a0175ee3bccc // indirect
	github.com/alecthomas/units v0.0.0-20151022065526-2efee857e7cf // indirect
	github.com/certifi/gocertifi v0.0.0-20200211180108-c7c1fbc02894 // indirect
	github.com/fatih/structs v1.1.0
	github.com/fsnotify/fsnotify v1.4.9 // indirect
	github.com/getsentry/raven-go v0.2.0 // indirect
	github.com/getsentry/sentry-go v0.7.0 // indirect
	github.com/go-ozzo/ozzo-validation/v4 v4.2.1 // indirect
	github.com/gobuffalo/packr/v2 v2.8.1
	github.com/google/jsonapi v0.0.0-20200226002910-c8283f632fb7 // indirect
	github.com/hashicorp/hcl v1.0.0 // indirect
	github.com/jmoiron/sqlx v1.2.0 // indirect
	github.com/lann/builder v0.0.0-20180802200727-47ae307949d0 // indirect
	github.com/lann/ps v0.0.0-20150810152359-62de8c46ede0 // indirect
	github.com/lib/pq v1.10.0 // indirect
	github.com/magiconair/properties v1.8.5 // indirect
	github.com/mitchellh/mapstructure v1.4.1 // indirect
	github.com/oklog/ulid v1.3.1 // indirect
	github.com/pelletier/go-toml v1.9.3 // indirect
	github.com/pkg/errors v0.9.1 // indirect
	github.com/sirupsen/logrus v1.8.1
	github.com/spf13/afero v1.6.0 // indirect
	github.com/spf13/cast v1.3.1 // indirect
	github.com/spf13/jwalterweatherman v1.1.0 // indirect
	github.com/spf13/pflag v1.0.5 // indirect
	github.com/spf13/viper v1.8.1 // indirect
	github.com/xr9kayu/logrus v0.7.2 // indirect
	github.com/ziutek/mymysql v1.5.4 // indirect
	gitlab.com/distributed_lab/figure v2.1.0+incompatible // indirect
	gitlab.com/distributed_lab/lorem v0.2.0 // indirect
	gitlab.com/distributed_lab/running v0.0.0-20200706131153-4af0e83eb96c // indirect
	golang.org/x/sys v0.0.0-20211025201205-69cdffdb9359 // indirect
	golang.org/x/text v0.3.5 // indirect
	gopkg.in/gorp.v1 v1.7.2 // indirect
	gopkg.in/yaml.v2 v2.4.0 // indirect
)
